
 LIST MATERIALS       1 TO       3 BY       1
  PROPERTY= ALL 

 MATERIAL NUMBER       1

      TEMP        RSVX
                0.000000    

      TEMP        PERX
               0.1000000E+11

 MATERIAL NUMBER       2

      TEMP        PERX
                1.000000    

 MATERIAL NUMBER       3

      TEMP        PERX
                6.000000    
